A Grammar of Data Manipulation for Omics Experiments • tidies
…
Another approach is to convert the omics objects to tidy tibbles and work direcly with these. This can easily be done with the Bioconductor biobroom package, that will convert the 55 features by 4 samples into a 220 tibble:

library("biobroom")

## Loading required package: broom

## Registered S3 methods overwritten by 'biobroom':
##   method      from 
##   glance.list broom
##   tidy.list   broom

tidy(msnset, addPheno = TRUE)

## # A tibble: 220 x 6
##    protein sample        mz reporters group  value
##    <chr>   <chr>      <dbl> <fct>     <chr>  <dbl>
##  1 X1      iTRAQ4.114  114. iTRAQ4    A      1348.
##  2 X10     iTRAQ4.114  114. iTRAQ4    A       740.
##  3 X11     iTRAQ4.114  114. iTRAQ4    A     27638.
##  4 X12     iTRAQ4.114  114. iTRAQ4    A     31893.
##  5 X13     iTRAQ4.114  114. iTRAQ4    A     26144.
##  6 X14     iTRAQ4.114  114. iTRAQ4    A      6448.
##  7 X15     iTRAQ4.114  114. iTRAQ4    A       722.
##  8 X16     iTRAQ4.114  114. iTRAQ4    A     10155.
##  9 X17     iTRAQ4.114  114. iTRAQ4    A      2800.
## 10 X18     iTRAQ4.114  114. iTRAQ4    A      4459.
## # … with 210 more rows
…
x <- tidyr::pivot_longer(x,
                         names_to = "sample",
                         values_to = "exprs",
                         -fv)

## Note: Using an external vector in selections is ambiguous.
## ℹ Use `all_of(fv)` instead of `fv` to silence this message.
## ℹ See <https://tidyselect.r-lib.org/reference/faq-external-vector.html>.
## This message is displayed once per session.

x

## # A tibble: 220 x 17
##    spectrum ProteinAccession ProteinDescript… PeptideSequence  file
##  *    <int> <fct>            <fct>            <fct>           <int>
##  1        1 BSA              bovine serum al… NYQEAK              1
##  2        1 BSA              bovine serum al… NYQEAK              1
##  3        1 BSA              bovine serum al… NYQEAK              1
##  4        1 BSA              bovine serum al… NYQEAK              1
##  5       10 ECA1422          glucose-1-phosp… VTLVDTGEHSMTGGR     1
##  6       10 ECA1422          glucose-1-phosp… VTLVDTGEHSMTGGR     1
##  7       10 ECA1422          glucose-1-phosp… VTLVDTGEHSMTGGR     1
##  8       10 ECA1422          glucose-1-phosp… VTLVDTGEHSMTGGR     1
##  9       11 ECA4030          50S ribosomal s… SPIWR               1
## 10       11 ECA4030          50S ribosomal s… SPIWR               1
## # … with 210 more rows, and 12 more variables: retention.time <dbl>,
## #   precursor.mz <dbl>, precursor.intensity <dbl>, charge <int>,
## #   peaks.count <int>, tic <dbl>, ionCount <dbl>, ms.level <int>,
## #   acquisition.number <int>, collision.energy <dbl>, sample <chr>, exprs <dbl>
…
